[
    {
        "gitlabRoleLevel": 50,
        "activeDirectoryGroups": [
            "DevOps Administrators"
        ]
    },
    {
        "gitlabRoleLevel": 30,
        "activeDirectoryGroups": [
            "Investment Accounting Maintainers",
            "Investment Accounting Developers"
        ]
    }
]